##gff-version 3
AT1G49160,Araport11,gene,1,3139,.,\+,.,ID=AT1G49160;symbol=WNK7;tid=AT1G49160.2;Name=AT1G49160;gene_id=AT1G49160
AT1G49160,Araport11,mRNA,1,3139,.,\+,.,ID=AT1G49160.4;Parent=AT1G49160;Name=AT1G49160;gene_id=AT1G49160
AT1G49160,Araport11,exon,2399,3139,.,\+,.,ID=AT1G49160.4:exon:1;Parent=AT1G49160.4;Name=AT1G49160;gene_id=AT1G49160
AT1G49160,Araport11,exon,1839,2259,.,\+,.,ID=AT1G49160.4:exon:2;Parent=AT1G49160.4;Name=AT1G49160;gene_id=AT1G49160
AT1G49160,Araport11,CDS,2399,2919,.,\+,2,ID=AT1G49160.4:CDS;Parent=AT1G49160.4;Name=AT1G49160;gene_id=AT1G49160
AT1G49160,Araport11,CDS,1839,2259,.,\+,0,ID=AT1G49160.4:CDS;Parent=AT1G49160.4;Name=AT1G49160;gene_id=AT1G49160
AT1G49160,Primer3,Amplicon,1949,2189,.,\+,.,ID=AT1G49160_Amplicon1;Name=AT1G49160_Amplicon1
AT1G49160,FlashFry,gRNA,2061,2083,100,\-,.,ID=AT1G49160_Amplicon1_gRNA1;Sequence=GTTCTATTCCGAGCATTAGGTGG;Name=AT1G49160_Amplicon1_gRNA1;MITscore=100;OffTargets=2;DoenchScore=69
AT1G49160,FlashFry,gRNA,2002,2024,99,\-,.,ID=AT1G49160_Amplicon1_gRNA2;Sequence=TTCTTTCGGCATTACAATGTCGG;Name=AT1G49160_Amplicon1_gRNA2;MITscore=99;OffTargets=6;DoenchScore=2
AT1G49160,Primer3,Primer_forward,1949,1973,.,\+,.,ID=AT1G49160_Amplicon1_fwd;Sequence=GGATTCTTTTCTCAATGTGAACGGT;Name=AT1G49160_Amplicon1_fwd
AT1G49160,Primer3,Border_forward,1964,1973,.,\+,.,NAME=AT1G49160_Amplicon1_fwd_border;ID=AT1G49160_Amplicon1_fwd_border;Sequence=TGTGAACGGT
AT1G49160,Primer3,Primer_reverse,2170,2189,.,\-,.,ID=AT1G49160_Amplicon1_rev;Sequence=AAAGTTTCCTCGCTTTGCCC;Name=AT1G49160_Amplicon1_rev
AT1G49160,Primer3,Border_reverse,2170,2179,.,\-,.,NAME=AT1G49160_Amplicon1_rev_border;ID=AT1G49160_Amplicon1_rev_border;Sequence=CGCTTTGCCC